<?xml version="1.0" encoding="UTF-8"?>
<svg width="101px" height="19px" viewBox="0 0 101 19" version="1.1" xmlns="http://www.w3.org/2000/svg" xmlns:xlink="http://www.w3.org/1999/xlink">
    <!-- Generator: Sketch 53 (72520) - https://sketchapp.com -->
    <title>icons/ledger-unioned</title>
    <desc>Created with Sketch.</desc>
    <g id="icons/ledger-unioned" stroke="none" stroke-width="1" fill="none" fill-rule="evenodd">
        <path d="M37,13 L30,13 C29.4477153,13 29,12.5522847 29,12 L0,12 L0,9 L29,9 C29,8.44771525 29.4477153,8 30,8 L37,8 L37,3.33333333 C37,2.04466892 38.0556654,1 39.3578947,1 L42,1 L42,0 L52,0 L52,1 L71,1 L71,0 L81,0 L81,1 L98.6421053,1 C99.9443346,1 101,2.04466892 101,3.33333333 L101,16.6666667 C101,17.9553311 99.9443346,19 98.6421053,19 L39.3578947,19 C38.0556654,19 37,17.9553311 37,16.6666667 L37,13 Z M45.9204938,5.69565217 C45.3575725,5.69565217 44.9012346,6.14037267 44.9012346,6.68896321 L44.9012346,13.3110368 C44.9012346,13.8596273 45.3575725,14.3043478 45.9204938,14.3043478 L77.857284,14.3043478 C78.4202053,14.3043478 78.8765432,13.8596273 78.8765432,13.3110368 L78.8765432,6.68896321 C78.8765432,6.14037267 78.4202053,5.69565217 77.857284,5.69565217 L45.9204938,5.69565217 Z" id="Shape" fill="#d8dce6"></path>
    </g>
</svg>
